{
  "project_info": {
    "project_number": "602972905890",
    "firebase_url": "https://hackathonint2020h.firebaseio.com",
    "project_id": "hackathonint2020h",
    "storage_bucket": "hackathonint2020h.appspot.com"
  },
  "client": [
    {
      "client_info": {
        "mobilesdk_app_id": "1:602972905890:android:f8747be6b85e483caa52fb",
        "android_client_info": {
          "package_name": "com.codeninjas.hackathon"
        }
      },
      "oauth_client": [
        {
          "client_id": "602972905890-7hj57f66e0b02p12gahktkrpslppiehn.apps.googleusercontent.com",
          "client_type": 1,
          "android_info": {
            "package_name": "com.codeninjas.hackathon",
            "certificate_hash": "453621158bbb80c6cb82a042186513309d2ae828"
          }
        },
        {
          "client_id": "602972905890-abjakd5nhsn00ng2q1pbidbgdjuv2lla.apps.googleusercontent.com",
          "client_type": 3
        }
      ],
      "api_key": [
        {
          "current_key": "AIzaSyACNOKzUY7vvC2Dr4siUFmeR2EUAKc3Xus"
        }
      ],
      "services": {
        "appinvite_service": {
          "other_platform_oauth_client": [
            {
              "client_id": "602972905890-abjakd5nhsn00ng2q1pbidbgdjuv2lla.apps.googleusercontent.com",
              "client_type": 3
            }
          ]
        }
      }
    }
  ],
  "configuration_version": "1"
}